◆雪拉・札德⋯⋯⋯⋯⋯⋯⋯⋯⋯⋯出身於貧窮村落的王國軍志願兵

【尤茲王國】

◆克里斯多夫・尤茲・尤尼瑪托⋯⋯尤茲國王

◆法魯薩姆⋯⋯⋯⋯⋯⋯⋯⋯⋯⋯⋯尤茲王國宰相

◆夏洛夫・巴札洛夫⋯⋯⋯⋯⋯⋯⋯王國軍元帥　第一軍軍團長

◆亞爾建・蓋魯⋯⋯⋯⋯⋯⋯⋯⋯⋯王國軍上將　第三軍軍團長

◆席達莫・亞特⋯⋯⋯⋯⋯⋯⋯⋯⋯王國軍上校　第三軍首席參謀

◆達威特⋯⋯⋯⋯⋯⋯⋯⋯⋯⋯⋯⋯王國軍上將　第四軍軍團長

◆卡妲莉娜・努貝斯⋯⋯⋯⋯⋯⋯⋯王國軍少尉

◆梵達・哈斐茲⋯⋯⋯⋯⋯⋯⋯⋯⋯王國軍少尉

【王都JF軍】

◆艾兒圖拉・尤茲・尤尼克斐⋯⋯⋯王都JF軍總大將

◆尤里鄔斯・齊蘭德⋯⋯⋯⋯⋯⋯⋯JF軍副將　齊蘭德帝國第二皇太子

◆迪納⋯⋯⋯⋯⋯⋯⋯⋯⋯⋯⋯⋯⋯JF軍軍師

◆貝弗魯茲⋯⋯⋯⋯⋯⋯⋯⋯⋯⋯⋯JF軍上將

◆費因・卡特夫⋯⋯⋯⋯⋯⋯⋯⋯⋯JF軍上校　獅子騎兵隊隊長